{
  "data": [
    {
      "icon": "https://gitlab.com/PenAndPapers/misocial/-/raw/master/src/assets/img/check_list.png",
      "title": "Qui magna sit Lorem exercitation veniam mollit duis non laborum voluptate officia nisi.",
      "description": "Deserunt ea fugiat aliqua eiusmod commodo adipisicing dolor nulla culpa ipsum excepteur labore ad ea. Do eiusmod sint labore labore aliqua reprehenderit nisi nulla et Lorem adipisicing. Dolor ullamco ut laboris labore pariatur. Commodo do nisi sunt et ex duis dolor esse. Laboris elit nostrud et ipsum irure ea sit cillum velit amet. Lorem esse proident sint proident pariatur fugiat."
    },
    {
      "icon": "https://gitlab.com/PenAndPapers/misocial/-/raw/master/src/assets/img/check_list.png",
      "title": "Occaecat tempor incididunt consequat exercitation.",
      "description": "Deserunt ea fugiat aliqua eiusmod commodo adipisicing dolor nulla culpa ipsum excepteur labore ad ea. Do eiusmod sint labore labore aliqua reprehenderit nisi nulla et Lorem adipisicing. Dolor ullamco ut laboris labore pariatur. Commodo do nisi sunt et ex duis dolor esse. Laboris elit nostrud et ipsum irure ea sit cillum velit amet. Lorem esse proident sint proident pariatur fugiat."
    },
    {
      "icon": "https://gitlab.com/PenAndPapers/misocial/-/raw/master/src/assets/img/check_list.png",
      "title": "Sunt aliqua dolore consectetur cillum laboris esse sunt magna veniam.",
      "description": "Deserunt ea fugiat aliqua eiusmod commodo adipisicing dolor nulla culpa ipsum excepteur labore ad ea. Do eiusmod sint labore labore aliqua reprehenderit nisi nulla et Lorem adipisicing. Dolor ullamco ut laboris labore pariatur. Commodo do nisi sunt et ex duis dolor esse. Laboris elit nostrud et ipsum irure ea sit cillum velit amet. Lorem esse proident sint proident pariatur fugiat."
    },
    {
      "icon": "https://gitlab.com/PenAndPapers/misocial/-/raw/master/src/assets/img/check_list.png",
      "title": "Qui pariatur ad irure laboris ad sint irure sit exercitation anim in non.",
      "description": "Deserunt ea fugiat aliqua eiusmod commodo adipisicing dolor nulla culpa ipsum excepteur labore ad ea. Do eiusmod sint labore labore aliqua reprehenderit nisi nulla et Lorem adipisicing. Dolor ullamco ut laboris labore pariatur. Commodo do nisi sunt et ex duis dolor esse. Laboris elit nostrud et ipsum irure ea sit cillum velit amet. Lorem esse proident sint proident pariatur fugiat."
    },
    {
      "icon": "https://gitlab.com/PenAndPapers/misocial/-/raw/master/src/assets/img/check_list.png",
      "title": "Qui magna sit Lorem exercitation veniam mollit duis non laborum voluptate officia nisi.",
      "description": "Deserunt ea fugiat aliqua eiusmod commodo adipisicing dolor nulla culpa ipsum excepteur labore ad ea. Do eiusmod sint labore labore aliqua reprehenderit nisi nulla et Lorem adipisicing. Dolor ullamco ut laboris labore pariatur. Commodo do nisi sunt et ex duis dolor esse. Laboris elit nostrud et ipsum irure ea sit cillum velit amet. Lorem esse proident sint proident pariatur fugiat."
    },
    {
      "icon": "https://gitlab.com/PenAndPapers/misocial/-/raw/master/src/assets/img/check_list.png",
      "title": "Occaecat tempor incididunt consequat exercitation.",
      "description": "Deserunt ea fugiat aliqua eiusmod commodo adipisicing dolor nulla culpa ipsum excepteur labore ad ea. Do eiusmod sint labore labore aliqua reprehenderit nisi nulla et Lorem adipisicing. Dolor ullamco ut laboris labore pariatur. Commodo do nisi sunt et ex duis dolor esse. Laboris elit nostrud et ipsum irure ea sit cillum velit amet. Lorem esse proident sint proident pariatur fugiat."
    },
    {
      "icon": "https://gitlab.com/PenAndPapers/misocial/-/raw/master/src/assets/img/check_list.png",
      "title": "Sunt aliqua dolore consectetur cillum laboris esse sunt magna veniam.",
      "description": "Deserunt ea fugiat aliqua eiusmod commodo adipisicing dolor nulla culpa ipsum excepteur labore ad ea. Do eiusmod sint labore labore aliqua reprehenderit nisi nulla et Lorem adipisicing. Dolor ullamco ut laboris labore pariatur. Commodo do nisi sunt et ex duis dolor esse. Laboris elit nostrud et ipsum irure ea sit cillum velit amet. Lorem esse proident sint proident pariatur fugiat."
    },
    {
      "icon": "https://gitlab.com/PenAndPapers/misocial/-/raw/master/src/assets/img/check_list.png",
      "title": "Qui pariatur ad irure laboris ad sint irure sit exercitation anim in non.",
      "description": "Deserunt ea fugiat aliqua eiusmod commodo adipisicing dolor nulla culpa ipsum excepteur labore ad ea. Do eiusmod sint labore labore aliqua reprehenderit nisi nulla et Lorem adipisicing. Dolor ullamco ut laboris labore pariatur. Commodo do nisi sunt et ex duis dolor esse. Laboris elit nostrud et ipsum irure ea sit cillum velit amet. Lorem esse proident sint proident pariatur fugiat."
    },
    {
      "icon": "https://gitlab.com/PenAndPapers/misocial/-/raw/master/src/assets/img/check_list.png",
      "title": "Qui magna sit Lorem exercitation veniam mollit duis non laborum voluptate officia nisi.",
      "description": "Deserunt ea fugiat aliqua eiusmod commodo adipisicing dolor nulla culpa ipsum excepteur labore ad ea. Do eiusmod sint labore labore aliqua reprehenderit nisi nulla et Lorem adipisicing. Dolor ullamco ut laboris labore pariatur. Commodo do nisi sunt et ex duis dolor esse. Laboris elit nostrud et ipsum irure ea sit cillum velit amet. Lorem esse proident sint proident pariatur fugiat."
    },
    {
      "icon": "https://gitlab.com/PenAndPapers/misocial/-/raw/master/src/assets/img/check_list.png",
      "title": "Occaecat tempor incididunt consequat exercitation.",
      "description": "Deserunt ea fugiat aliqua eiusmod commodo adipisicing dolor nulla culpa ipsum excepteur labore ad ea. Do eiusmod sint labore labore aliqua reprehenderit nisi nulla et Lorem adipisicing. Dolor ullamco ut laboris labore pariatur. Commodo do nisi sunt et ex duis dolor esse. Laboris elit nostrud et ipsum irure ea sit cillum velit amet. Lorem esse proident sint proident pariatur fugiat."
    },
    {
      "icon": "https://gitlab.com/PenAndPapers/misocial/-/raw/master/src/assets/img/check_list.png",
      "title": "Sunt aliqua dolore consectetur cillum laboris esse sunt magna veniam.",
      "description": "Deserunt ea fugiat aliqua eiusmod commodo adipisicing dolor nulla culpa ipsum excepteur labore ad ea. Do eiusmod sint labore labore aliqua reprehenderit nisi nulla et Lorem adipisicing. Dolor ullamco ut laboris labore pariatur. Commodo do nisi sunt et ex duis dolor esse. Laboris elit nostrud et ipsum irure ea sit cillum velit amet. Lorem esse proident sint proident pariatur fugiat."
    },
    {
      "icon": "https://gitlab.com/PenAndPapers/misocial/-/raw/master/src/assets/img/check_list.png",
      "title": "Qui pariatur ad irure laboris ad sint irure sit exercitation anim in non.",
      "description": "Deserunt ea fugiat aliqua eiusmod commodo adipisicing dolor nulla culpa ipsum excepteur labore ad ea. Do eiusmod sint labore labore aliqua reprehenderit nisi nulla et Lorem adipisicing. Dolor ullamco ut laboris labore pariatur. Commodo do nisi sunt et ex duis dolor esse. Laboris elit nostrud et ipsum irure ea sit cillum velit amet. Lorem esse proident sint proident pariatur fugiat."
    }
  ]
}